Experiment with each of these commands:
          mkdir
          rmdir
          cd
          ls
          pwd
          cat
          head
          more
          rm
          cp
          who
          date
          cal
          man
